{
  "aururl": "https://aur.archlinux.org",
  "buildDir": "$HOME/.cache/yay",
  "absdir": "$HOME/.cache/yay/abs",
  "editor": "",
  "editorflags": "",
  "makepkgbin": "makepkg",
  "makepkgconf": "$HOME/.config/yay/makepkg.conf",
  "pacmanbin": "pacman",
  "pacmanconf": "$HOME/.config/pacman/pacman.conf",
  "redownload": "no",
  "rebuild": "no",
  "answerclean": "",
  "answerdiff": "",
  "answeredit": "",
  "answerupgrade": "",
  "gitbin": "git",
  "gpgbin": "gpg",
  "gpgflags": "",
  "mflags": "",
  "sortby": "votes",
  "searchby": "name-desc",
  "gitflags": "",
  "removemake": "ask",
  "sudobin": "sudo",
  "sudoflags": "",
  "requestsplitn": 150,
  "sortmode": 0,
  "completionrefreshtime": 7,
  "sudoloop": true,
  "timeupdate": false,
  "devel": true,
  "cleanAfter": false,
  "provides": true,
  "pgpfetch": true,
  "upgrademenu": true,
  "cleanmenu": true,
  "diffmenu": true,
  "editmenu": true,
  "combinedupgrade": false,
  "useask": false,
  "batchinstall": true
}
